Figure 02. Correlations between differences in susceptibility to toxicant conditions
…
top_proc <- dplyr::left_join(top_r_proc, top_p_proc) %>%
  dplyr::mutate(
    pos_sig_n = sum(r > 0 & `BF_p<0.05` == T),
    neg_sig_n = sum(r < 0 & `BF_p<0.05` == T)
  )

Joining with `by = join_by(y_trait, x_trait)`

top_proc

# A tibble: 325 × 9
   y_trait   x_trait       r neg_n pos_n    BF_p `BF_p<0.05` pos_sig_n neg_sig_n
   <chr>     <chr>     <dbl> <int> <int>   <dbl> <lgl>           <int>     <int>
 1 Copper c… Cadmiu…  0.363     26   299 8.47e-5 TRUE               88         0
 2 Copper c… Paraqu…  0.387     26   299 9.37e-6 TRUE               88         0
 3 Copper c… Silver…  0.383     26   299 2.19e-5 TRUE               88         0
 4 Copper c… Nickel…  0.213     26   299 9.52e-1 FALSE              88         0
 5 Copper c… Chlorf…  0.0319    26   299 1   e+0 FALSE              88         0
 6 Copper c… Paraqu…  0.0801    26   299 1   e+0 FALSE              88         0
 7 Copper c… Arseni…  0.0765    26   299 1   e+0 FALSE              88         0
 8 Copper c… Methyl…  0.252     26   299 1.38e-1 FALSE              88         0
 9 Copper c… Atrazi…  0.0426    26   299 1   e+0 FALSE              88         0
10 Copper c… Propox… -0.0794    26   299 1   e+0 FALSE              88         0
# ℹ 315 more rows
…
